<svg width="119" height="53" viewBox="0 0 119 53" fill="none" xmlns="http://www.w3.org/2000/svg">
<g id="2c00a5f 3" clip-path="url(#clip0_34713_15)">
<path id="Vector" d="M21.765 18.2782H18.4517C18.4517 18.0286 17.8227 16.1223 15.1605 16.1223C13.2106 16.1223 12.7975 17.1515 12.7975 17.8371C12.7975 19.4305 15.4393 19.7519 17.0135 20.1537C18.7917 20.6068 22.2767 21.5351 22.2767 25.0673C22.2767 27.0266 21.2295 28.302 20.3047 29.0389C19.0841 29.9946 17.379 30.4853 15.3815 30.4853C10.4379 30.4853 8.27724 27.6438 8.04604 24.9203H11.8149C11.888 25.5272 12.6496 27.5429 15.5022 27.5429C17.94 27.5429 18.2324 26.2436 18.2324 25.7033C18.2324 24.1612 16.087 23.797 14.1966 23.3029C12.2433 22.79 8.89774 21.954 8.89774 18.3261C8.89774 15.6538 10.8238 13.1799 15.356 13.1799C21.1309 13.1816 21.765 17.4063 21.765 18.2782Z" fill="white"/>
<path id="Vector_2" d="M35.8155 26.0999C35.6404 27.0146 34.4606 30.487 29.8655 30.487C27.817 30.487 26.3057 29.6749 25.3792 28.7465C24.5258 27.8882 23.601 26.3649 23.601 24.0141C23.601 21.2701 24.8182 19.7228 25.7923 18.8902C27.2322 17.6661 28.7911 17.4934 29.8876 17.4934C32.2523 17.4934 33.7398 18.5722 34.5677 19.5792C35.3242 20.4853 36.0059 21.9796 36.0059 24.0893V24.7253H27.494C27.494 26.3701 28.123 28.037 30.0338 28.037C31.6624 28.037 32.3237 26.7752 32.4716 26.0999H35.8155ZM32.2778 22.643C32.2778 22.0343 32.0041 19.9451 29.9369 19.9451C27.8714 19.9451 27.494 21.7779 27.494 22.643H32.2778Z" fill="white"/>
<path id="Vector_3" d="M42.5053 17.7396H45.0876V20.3144H42.5053V25.9255C42.5053 26.3666 42.5053 26.9069 42.8946 27.3223C43.2108 27.642 43.6239 27.6899 44.0149 27.6899H45.3562V30.2664C44.5283 30.3861 43.4573 30.4869 42.6753 30.4869C41.7743 30.4869 40.5554 30.2903 39.7496 29.4321C38.8265 28.4541 38.8741 27.2249 38.8741 26.0264V20.3144H36.9225V17.7396H38.8741L39.2141 13.9167H42.5053V17.7396Z" fill="white"/>
<path id="Vector_4" d="M68.364 30.2408H66.3155L65.7086 28.4046C65.2921 28.9688 64.7311 29.4561 64.1956 29.7775C63.2946 30.2921 62.1233 30.4887 61.1016 30.4887C59.5903 30.4887 57.6897 30.1673 56.1053 28.4046C54.645 26.7855 53.8868 24.2364 53.8868 22.0566C53.8868 19.8237 54.5209 17.3242 55.9812 15.6316C57.7135 13.6227 59.881 13.1816 61.6116 13.1816C66.6572 13.1816 68.0801 16.5685 68.3147 19.1142H64.5356C64.4642 18.5022 64.2211 17.767 63.8556 17.2746C63.4663 16.7361 62.7591 16.124 61.5402 16.124C60.5882 16.124 59.4679 16.5155 58.7369 17.938C58.5431 18.3295 58.0807 19.3587 58.0807 21.8104C58.0807 23.2568 58.249 24.8502 58.8593 25.8794C59.3727 26.736 60.2465 27.5481 61.6847 27.5481C62.5891 27.5481 63.3184 27.2044 63.8063 26.7137C64.2925 26.2231 64.6614 25.3922 64.6614 24.5083V24.0894H61.3192V21.2205H68.3657V30.2408H68.364Z" fill="white"/>
<path id="Vector_5" d="M71.0599 30.2408V17.7396H74.2304V20.5093H74.2797C74.3987 19.5536 74.8645 18.8919 75.1807 18.55C75.5938 18.1089 76.3724 17.4951 77.6406 17.4951C77.8616 17.4951 78.0809 17.5225 78.3002 17.5447V20.829H77.7154C77.1068 20.829 76.5203 20.9521 76.0562 21.2461C74.8628 22.0052 74.6911 23.1832 74.6911 24.5048V30.2391H71.0599V30.2408Z" fill="white"/>
<path id="Vector_6" d="M89.777 19.2099C90.3618 19.7998 91.6283 21.3419 91.6283 23.9645C91.6283 25.9751 90.8497 27.7651 89.6801 28.8935C88.8284 29.7022 87.4378 30.487 85.4641 30.487C83.487 30.487 82.0998 29.7022 81.2464 28.8935C80.0768 27.7651 79.2982 25.9751 79.2982 23.9645C79.2982 21.3419 80.5664 19.7981 81.1529 19.2099C82.5911 17.7875 84.2452 17.4934 85.4658 17.4934C86.6813 17.4934 88.3388 17.7875 89.777 19.2099ZM83.7318 20.9264C83.1453 21.8326 83.0977 23.0328 83.0977 23.9645C83.0977 25.6554 83.3646 26.4641 83.6587 26.9804C84.1211 27.7891 84.8062 28.0353 85.4641 28.0353C86.1203 28.0353 86.8054 27.7874 87.2678 26.9804C87.5619 26.4641 87.8288 25.6571 87.8288 23.9645C87.8288 23.0328 87.7812 21.8326 87.1964 20.9264C86.7816 20.2648 86.2444 19.9451 85.4641 19.9451C84.6838 19.9451 84.1449 20.2665 83.7318 20.9264Z" fill="white"/>
<path id="Vector_7" d="M97.046 17.7396V25.2656C97.046 25.7289 97.046 26.6128 97.4574 27.1514C97.726 27.519 98.1884 27.7156 98.6984 27.7156C99.2832 27.7156 99.9173 27.4472 100.334 26.883C100.818 26.247 100.895 25.4896 100.895 24.8502V17.7413H104.524V30.2425H101.16V28.0114H101.114C100.478 29.4834 99.2101 30.4887 97.386 30.4887C96.2623 30.4887 95.4361 30.145 94.802 29.6031C93.5814 28.5738 93.4097 27.1514 93.4097 25.8555V17.7413H97.046V17.7396Z" fill="white"/>
<path id="Vector_8" d="M107.18 34.2602V17.7396H110.544V19.7502C111.299 18.2799 112.763 17.4951 114.322 17.4951C117.37 17.4951 119.002 20.1673 119.002 23.8705C119.002 28.5755 116.588 30.4887 114.175 30.4887C112.69 30.4887 111.571 29.8749 110.813 28.6491V34.2619H107.18V34.2602ZM110.813 25.2417C110.813 26.9821 111.615 28.037 112.931 28.037C114.738 28.037 115.195 26.0503 115.195 23.9423C115.195 21.0991 114.32 19.9451 112.931 19.9451C111.639 19.9451 110.813 21.0495 110.813 22.5455V25.2417Z" fill="white"/>
<path id="Vector_9" d="M51.772 11.6327H48.0796V30.2032H51.772V11.6327Z" fill="white"/>
<path id="Vector_10" d="M51.7548 11.6378H48.0607V30.2066H51.7548V11.6378Z" fill="white"/>
<path id="Vector_11" d="M0 0.500977V52.4991H51.7616V33.9867H48.0641V48.7788H3.7451L3.7315 4.23491L48.0641 4.22123V7.9432H51.7616V0.500977H0Z" fill="white"/>
</g>
<defs>
<clipPath id="clip0_34713_15">
<rect width="119" height="53" fill="white"/>
</clipPath>
</defs>
</svg>
